Untitled
…
A two panel plot for 2006 and 2010:

library(patchwork)
Two_2006 =
brfss %>% 
  filter(year == "2006") %>% 
  select(year,locationabbr,response, data_value) %>% 
  drop_na() %>% 
  filter(response %in% c("Excellent","Very good","Good","Fair","Poor")) %>% 
  filter(locationabbr == "NY")
Two_2006

## # A tibble: 30 x 4
##     year locationabbr response  data_value
##    <int> <chr>        <fct>          <dbl>
##  1  2006 NY           Good            23.5
##  2  2006 NY           Excellent       19.2
##  3  2006 NY           Very good       25.9
##  4  2006 NY           Good            36.3
##  5  2006 NY           Fair            15.3
##  6  2006 NY           Poor             3.3
##  7  2006 NY           Excellent       21.7
##  8  2006 NY           Very good       35  
##  9  2006 NY           Good            28.2
## 10  2006 NY           Fair            11.6
## #  with 20 more rows
…
