…
``` r
brfss_datavalue = 
brfss %>% 
  filter(response == "Excellent") %>% 
  group_by(locationabbr, year) %>% 
  summarize(
    mean_data_value = mean(data_value),
    ) %>% 
  drop_na()
brfss_datavalue
```

    ## # A tibble: 439 x 3
    ## # Groups:   locationabbr [51]
    ##    locationabbr  year mean_data_value
    ##    <chr>        <int>           <dbl>
    ##  1 AK            2002            27.9
    ##  2 AK            2003            24.8
    ##  3 AK            2004            23.0
    ##  4 AK            2005            23.8
    ##  5 AK            2007            23.5
    ##  6 AK            2008            20.6
    ##  7 AK            2009            23.2
    ##  8 AL            2002            18.5
    ##  9 AL            2003            19.5
    ## 10 AL            2004            20  
    ## # … with 429 more rows
…
